<mxfile host="app.diagrams.net" modified="2020-11-23T12:23:38.971Z" agent="5.0 (Windows NT 10.0; Win64; x64) AppleWebKit/537.36 (KHTML, like Gecko) Chrome/86.0.4240.198 Safari/537.36" etag="U5tbRgo2ZJc1AK7ggbIz" version="13.10.1" type="gitlab">
  <diagram id="hCBwPEv1nFj7md9i5wU9" name="Page-1">
    <mxGraphModel dx="2254" dy="836" grid="1" gridSize="10" guides="1" tooltips="1" connect="1" arrows="1" fold="1" page="1" pageScale="1" pageWidth="1169" pageHeight="827" math="0" shadow="0">
      <root>
        <mxCell id="0" />
        <mxCell id="1" parent="0" />
        <mxCell id="BKtC9cJUouZ0CHGtqXPR-27" value="" style="rounded=1;whiteSpace=wrap;html=1;strokeColor=#00CC00;fillColor=none;gradientColor=none;fontFamily=Helvetica;fontSize=15;align=left;" vertex="1" parent="1">
          <mxGeometry x="40" y="420" width="1080" height="520" as="geometry" />
        </mxCell>
        <mxCell id="WP289Cij4RQaTX2rcCHP-1" style="edgeStyle=orthogonalEdgeStyle;rounded=0;orthogonalLoop=1;jettySize=auto;html=1;entryX=0.5;entryY=1;entryDx=0;entryDy=0;fontSize=15;exitX=0.5;exitY=0;exitDx=0;exitDy=0;" parent="1" source="BKtC9cJUouZ0CHGtqXPR-1" target="WP289Cij4RQaTX2rcCHP-9" edge="1">
          <mxGeometry relative="1" as="geometry" />
        </mxCell>
        <mxCell id="BKtC9cJUouZ0CHGtqXPR-9" style="edgeStyle=orthogonalEdgeStyle;rounded=0;orthogonalLoop=1;jettySize=auto;html=1;entryX=0;entryY=0.75;entryDx=0;entryDy=0;exitX=1;exitY=0.75;exitDx=0;exitDy=0;" edge="1" parent="1" source="WP289Cij4RQaTX2rcCHP-5" target="BKtC9cJUouZ0CHGtqXPR-4">
          <mxGeometry relative="1" as="geometry">
            <mxPoint x="690" y="530" as="targetPoint" />
          </mxGeometry>
        </mxCell>
        <mxCell id="WP289Cij4RQaTX2rcCHP-2" value="HabitsTracker" style="swimlane;fontStyle=0;align=center;verticalAlign=top;childLayout=stackLayout;horizontal=1;startSize=26;horizontalStack=0;resizeParent=1;resizeLast=0;collapsible=1;marginBottom=0;rounded=0;shadow=0;strokeWidth=1;fontSize=15;" parent="1" vertex="1">
          <mxGeometry x="120" y="440" width="440" height="200" as="geometry">
            <mxRectangle x="550" y="140" width="160" height="26" as="alternateBounds" />
          </mxGeometry>
        </mxCell>
        <mxCell id="WP289Cij4RQaTX2rcCHP-3" value="&lt;font style=&quot;font-size: 15px&quot;&gt;startNewChallenge():Challenge&lt;/font&gt;" style="text;whiteSpace=wrap;html=1;fontSize=15;fontFamily=Helvetica;" parent="WP289Cij4RQaTX2rcCHP-2" vertex="1">
          <mxGeometry y="26" width="440" height="28" as="geometry" />
        </mxCell>
        <mxCell id="WP289Cij4RQaTX2rcCHP-4" value="&lt;font style=&quot;font-size: 15px&quot;&gt;getActualAchievements():ActualAchievement[]&lt;/font&gt;" style="text;whiteSpace=wrap;html=1;fontSize=15;fontFamily=Helvetica;" parent="WP289Cij4RQaTX2rcCHP-2" vertex="1">
          <mxGeometry y="54" width="440" height="28" as="geometry" />
        </mxCell>
        <mxCell id="WP289Cij4RQaTX2rcCHP-5" value="getCurrentTask():ActualTask" style="text;whiteSpace=wrap;html=1;fontSize=15;fontFamily=Helvetica;verticalAlign=middle;" parent="WP289Cij4RQaTX2rcCHP-2" vertex="1">
          <mxGeometry y="82" width="440" height="26" as="geometry" />
        </mxCell>
        <mxCell id="WP289Cij4RQaTX2rcCHP-6" value="&lt;font style=&quot;font-size: 15px&quot;&gt;getSuccessTasks():ActualTask[]&lt;/font&gt;" style="text;whiteSpace=wrap;html=1;fontSize=15;fontFamily=Helvetica;" parent="WP289Cij4RQaTX2rcCHP-2" vertex="1">
          <mxGeometry y="108" width="440" height="28" as="geometry" />
        </mxCell>
        <mxCell id="WP289Cij4RQaTX2rcCHP-7" value="&lt;font style=&quot;font-size: 15px&quot;&gt;restartCurrentChallenge():Challenge&lt;/font&gt;" style="text;whiteSpace=wrap;html=1;fontSize=15;fontFamily=Helvetica;" parent="WP289Cij4RQaTX2rcCHP-2" vertex="1">
          <mxGeometry y="136" width="440" height="28" as="geometry" />
        </mxCell>
        <mxCell id="WP289Cij4RQaTX2rcCHP-8" value="&lt;font style=&quot;font-size: 15px&quot;&gt;login(userName:sting):void&lt;/font&gt;" style="text;whiteSpace=wrap;html=1;fontSize=15;fontFamily=Helvetica;" parent="WP289Cij4RQaTX2rcCHP-2" vertex="1">
          <mxGeometry y="164" width="440" height="28" as="geometry" />
        </mxCell>
        <mxCell id="WP289Cij4RQaTX2rcCHP-9" value="" style="rounded=1;whiteSpace=wrap;html=1;strokeColor=#00CC00;fillColor=none;gradientColor=none;fontFamily=Helvetica;fontSize=15;align=left;" parent="1" vertex="1">
          <mxGeometry x="40" y="40" width="1080" height="340" as="geometry" />
        </mxCell>
        <mxCell id="WP289Cij4RQaTX2rcCHP-10" value="DataBase&#xa;" style="swimlane;fontStyle=0;align=center;verticalAlign=top;childLayout=stackLayout;horizontal=1;startSize=26;horizontalStack=0;resizeParent=1;resizeLast=0;collapsible=1;marginBottom=0;rounded=0;shadow=0;strokeWidth=1;fontSize=15;" parent="1" vertex="1">
          <mxGeometry x="200" y="200" width="160" height="160" as="geometry">
            <mxRectangle x="550" y="140" width="160" height="26" as="alternateBounds" />
          </mxGeometry>
        </mxCell>
        <mxCell id="WP289Cij4RQaTX2rcCHP-11" value="Challenges" style="text;align=left;verticalAlign=top;spacingLeft=4;spacingRight=4;overflow=hidden;rotatable=0;points=[[0,0.5],[1,0.5]];portConstraint=eastwest;rounded=0;shadow=0;html=0;fontSize=15;" parent="WP289Cij4RQaTX2rcCHP-10" vertex="1">
          <mxGeometry y="26" width="160" height="26" as="geometry" />
        </mxCell>
        <mxCell id="WP289Cij4RQaTX2rcCHP-12" value="Tasks" style="text;align=left;verticalAlign=top;spacingLeft=4;spacingRight=4;overflow=hidden;rotatable=0;points=[[0,0.5],[1,0.5]];portConstraint=eastwest;fontSize=15;" parent="WP289Cij4RQaTX2rcCHP-10" vertex="1">
          <mxGeometry y="52" width="160" height="26" as="geometry" />
        </mxCell>
        <mxCell id="WP289Cij4RQaTX2rcCHP-13" value="Challenges " style="text;align=left;verticalAlign=top;spacingLeft=4;spacingRight=4;overflow=hidden;rotatable=0;points=[[0,0.5],[1,0.5]];portConstraint=eastwest;rounded=0;shadow=0;html=0;fontSize=15;" parent="WP289Cij4RQaTX2rcCHP-10" vertex="1">
          <mxGeometry y="78" width="160" height="26" as="geometry" />
        </mxCell>
        <mxCell id="WP289Cij4RQaTX2rcCHP-14" value="Users" style="text;align=left;verticalAlign=top;spacingLeft=4;spacingRight=4;overflow=hidden;rotatable=0;points=[[0,0.5],[1,0.5]];portConstraint=eastwest;rounded=0;shadow=0;html=0;fontSize=15;" parent="WP289Cij4RQaTX2rcCHP-10" vertex="1">
          <mxGeometry y="104" width="160" height="26" as="geometry" />
        </mxCell>
        <mxCell id="WP289Cij4RQaTX2rcCHP-15" value="Achievements" style="text;align=left;verticalAlign=top;spacingLeft=4;spacingRight=4;overflow=hidden;rotatable=0;points=[[0,0.5],[1,0.5]];portConstraint=eastwest;rounded=0;shadow=0;html=0;fontSize=15;" parent="WP289Cij4RQaTX2rcCHP-10" vertex="1">
          <mxGeometry y="130" width="160" height="26" as="geometry" />
        </mxCell>
        <mxCell id="WP289Cij4RQaTX2rcCHP-16" value="Task" style="swimlane;fontStyle=0;align=center;verticalAlign=top;childLayout=stackLayout;horizontal=1;startSize=26;horizontalStack=0;resizeParent=1;resizeLast=0;collapsible=1;marginBottom=0;rounded=0;shadow=0;strokeWidth=1;fontSize=15;" parent="1" vertex="1">
          <mxGeometry x="460" y="70" width="160" height="80" as="geometry">
            <mxRectangle x="550" y="140" width="160" height="26" as="alternateBounds" />
          </mxGeometry>
        </mxCell>
        <mxCell id="WP289Cij4RQaTX2rcCHP-17" value="id:string" style="text;align=left;verticalAlign=top;spacingLeft=4;spacingRight=4;overflow=hidden;rotatable=0;points=[[0,0.5],[1,0.5]];portConstraint=eastwest;rounded=0;shadow=0;html=0;fontSize=15;" parent="WP289Cij4RQaTX2rcCHP-16" vertex="1">
          <mxGeometry y="26" width="160" height="26" as="geometry" />
        </mxCell>
        <mxCell id="WP289Cij4RQaTX2rcCHP-18" value="description:string" style="text;align=left;verticalAlign=top;spacingLeft=4;spacingRight=4;overflow=hidden;rotatable=0;points=[[0,0.5],[1,0.5]];portConstraint=eastwest;fontSize=15;" parent="WP289Cij4RQaTX2rcCHP-16" vertex="1">
          <mxGeometry y="52" width="160" height="26" as="geometry" />
        </mxCell>
        <mxCell id="WP289Cij4RQaTX2rcCHP-19" value="" style="edgeStyle=orthogonalEdgeStyle;rounded=0;orthogonalLoop=1;jettySize=auto;html=1;fontFamily=Helvetica;fontSize=15;" parent="1" source="WP289Cij4RQaTX2rcCHP-10" target="WP289Cij4RQaTX2rcCHP-16" edge="1">
          <mxGeometry x="40" y="50" as="geometry" />
        </mxCell>
        <mxCell id="WP289Cij4RQaTX2rcCHP-20" value="Achievement" style="swimlane;fontStyle=0;align=center;verticalAlign=top;childLayout=stackLayout;horizontal=1;startSize=26;horizontalStack=0;resizeParent=1;resizeLast=0;collapsible=1;marginBottom=0;rounded=0;shadow=0;strokeWidth=1;fontSize=15;" parent="1" vertex="1">
          <mxGeometry x="260" y="70" width="160" height="80" as="geometry">
            <mxRectangle x="550" y="140" width="160" height="26" as="alternateBounds" />
          </mxGeometry>
        </mxCell>
        <mxCell id="WP289Cij4RQaTX2rcCHP-21" value="id:string" style="text;align=left;verticalAlign=top;spacingLeft=4;spacingRight=4;overflow=hidden;rotatable=0;points=[[0,0.5],[1,0.5]];portConstraint=eastwest;rounded=0;shadow=0;html=0;fontSize=15;" parent="WP289Cij4RQaTX2rcCHP-20" vertex="1">
          <mxGeometry y="26" width="160" height="26" as="geometry" />
        </mxCell>
        <mxCell id="WP289Cij4RQaTX2rcCHP-22" value="description:string" style="text;align=left;verticalAlign=top;spacingLeft=4;spacingRight=4;overflow=hidden;rotatable=0;points=[[0,0.5],[1,0.5]];portConstraint=eastwest;fontSize=15;" parent="WP289Cij4RQaTX2rcCHP-20" vertex="1">
          <mxGeometry y="52" width="160" height="26" as="geometry" />
        </mxCell>
        <mxCell id="WP289Cij4RQaTX2rcCHP-23" value="" style="edgeStyle=orthogonalEdgeStyle;rounded=0;orthogonalLoop=1;jettySize=auto;html=1;fontFamily=Helvetica;fontSize=15;entryX=0.5;entryY=1;entryDx=0;entryDy=0;" parent="1" source="WP289Cij4RQaTX2rcCHP-10" target="WP289Cij4RQaTX2rcCHP-20" edge="1">
          <mxGeometry x="40" y="50" as="geometry">
            <mxPoint x="420" y="150" as="targetPoint" />
            <Array as="points">
              <mxPoint x="540" y="170" />
              <mxPoint x="340" y="170" />
            </Array>
          </mxGeometry>
        </mxCell>
        <mxCell id="WP289Cij4RQaTX2rcCHP-24" value="Users" style="swimlane;fontStyle=0;align=center;verticalAlign=top;childLayout=stackLayout;horizontal=1;startSize=26;horizontalStack=0;resizeParent=1;resizeLast=0;collapsible=1;marginBottom=0;rounded=0;shadow=0;strokeWidth=1;fontSize=15;" parent="1" vertex="1">
          <mxGeometry x="60" y="70" width="160" height="80" as="geometry">
            <mxRectangle x="550" y="140" width="160" height="26" as="alternateBounds" />
          </mxGeometry>
        </mxCell>
        <mxCell id="WP289Cij4RQaTX2rcCHP-25" value="name:string" style="text;align=left;verticalAlign=top;spacingLeft=4;spacingRight=4;overflow=hidden;rotatable=0;points=[[0,0.5],[1,0.5]];portConstraint=eastwest;rounded=0;shadow=0;html=0;fontSize=15;" parent="WP289Cij4RQaTX2rcCHP-24" vertex="1">
          <mxGeometry y="26" width="160" height="26" as="geometry" />
        </mxCell>
        <mxCell id="WP289Cij4RQaTX2rcCHP-26" value="permission:string[]" style="text;align=left;verticalAlign=top;spacingLeft=4;spacingRight=4;overflow=hidden;rotatable=0;points=[[0,0.5],[1,0.5]];portConstraint=eastwest;fontSize=15;" parent="WP289Cij4RQaTX2rcCHP-24" vertex="1">
          <mxGeometry y="52" width="160" height="28" as="geometry" />
        </mxCell>
        <mxCell id="WP289Cij4RQaTX2rcCHP-27" value="" style="edgeStyle=orthogonalEdgeStyle;rounded=0;orthogonalLoop=1;jettySize=auto;html=1;fontFamily=Helvetica;fontSize=15;entryX=0.5;entryY=1;entryDx=0;entryDy=0;" parent="1" source="WP289Cij4RQaTX2rcCHP-10" target="WP289Cij4RQaTX2rcCHP-24" edge="1">
          <mxGeometry x="40" y="50" as="geometry">
            <mxPoint x="380" y="309.9999999999999" as="targetPoint" />
            <Array as="points">
              <mxPoint x="540" y="170" />
              <mxPoint x="140" y="170" />
            </Array>
          </mxGeometry>
        </mxCell>
        <mxCell id="WP289Cij4RQaTX2rcCHP-28" value="Challenge" style="swimlane;fontStyle=0;align=center;verticalAlign=top;childLayout=stackLayout;horizontal=1;startSize=26;horizontalStack=0;resizeParent=1;resizeLast=0;collapsible=1;marginBottom=0;rounded=0;shadow=0;strokeWidth=1;fontSize=15;" parent="1" vertex="1">
          <mxGeometry x="670" y="70" width="250" height="160" as="geometry">
            <mxRectangle x="550" y="140" width="160" height="26" as="alternateBounds" />
          </mxGeometry>
        </mxCell>
        <mxCell id="WP289Cij4RQaTX2rcCHP-29" value="id:string" style="text;align=left;verticalAlign=top;spacingLeft=4;spacingRight=4;overflow=hidden;rotatable=0;points=[[0,0.5],[1,0.5]];portConstraint=eastwest;rounded=0;shadow=0;html=0;fontSize=15;" parent="WP289Cij4RQaTX2rcCHP-28" vertex="1">
          <mxGeometry y="26" width="250" height="26" as="geometry" />
        </mxCell>
        <mxCell id="WP289Cij4RQaTX2rcCHP-30" value="state:State" style="text;align=left;verticalAlign=top;spacingLeft=4;spacingRight=4;overflow=hidden;rotatable=0;points=[[0,0.5],[1,0.5]];portConstraint=eastwest;rounded=0;shadow=0;html=0;fontSize=15;" parent="WP289Cij4RQaTX2rcCHP-28" vertex="1">
          <mxGeometry y="52" width="250" height="26" as="geometry" />
        </mxCell>
        <mxCell id="WP289Cij4RQaTX2rcCHP-31" value="startDate:Date" style="text;align=left;verticalAlign=top;spacingLeft=4;spacingRight=4;overflow=hidden;rotatable=0;points=[[0,0.5],[1,0.5]];portConstraint=eastwest;rounded=0;shadow=0;html=0;fontSize=15;" parent="WP289Cij4RQaTX2rcCHP-28" vertex="1">
          <mxGeometry y="78" width="250" height="26" as="geometry" />
        </mxCell>
        <mxCell id="WP289Cij4RQaTX2rcCHP-32" value="tasks:ActualTask[]" style="text;align=left;verticalAlign=top;spacingLeft=4;spacingRight=4;overflow=hidden;rotatable=0;points=[[0,0.5],[1,0.5]];portConstraint=eastwest;rounded=0;shadow=0;html=0;fontSize=15;" parent="WP289Cij4RQaTX2rcCHP-28" vertex="1">
          <mxGeometry y="104" width="250" height="26" as="geometry" />
        </mxCell>
        <mxCell id="WP289Cij4RQaTX2rcCHP-33" value="achievements:ActualAchievement[]" style="text;align=left;verticalAlign=top;spacingLeft=4;spacingRight=4;overflow=hidden;rotatable=0;points=[[0,0.5],[1,0.5]];portConstraint=eastwest;rounded=0;shadow=0;html=0;fontSize=15;" parent="WP289Cij4RQaTX2rcCHP-28" vertex="1">
          <mxGeometry y="130" width="250" height="26" as="geometry" />
        </mxCell>
        <mxCell id="WP289Cij4RQaTX2rcCHP-34" value="" style="edgeStyle=orthogonalEdgeStyle;rounded=0;orthogonalLoop=1;jettySize=auto;html=1;fontFamily=Helvetica;fontSize=15;entryX=-0.001;entryY=0.079;entryDx=0;entryDy=0;entryPerimeter=0;" parent="1" source="WP289Cij4RQaTX2rcCHP-10" target="WP289Cij4RQaTX2rcCHP-31" edge="1">
          <mxGeometry x="40" y="50" as="geometry">
            <mxPoint x="690" y="150" as="targetPoint" />
            <Array as="points">
              <mxPoint x="540" y="170" />
              <mxPoint x="640" y="170" />
              <mxPoint x="640" y="150" />
            </Array>
          </mxGeometry>
        </mxCell>
        <mxCell id="WP289Cij4RQaTX2rcCHP-35" value="DATABASE" style="text;html=1;strokeColor=none;fillColor=none;align=center;verticalAlign=middle;whiteSpace=wrap;rounded=0;fontFamily=Helvetica;fontSize=15;" parent="1" vertex="1">
          <mxGeometry x="100" y="330" width="90" height="20" as="geometry" />
        </mxCell>
        <mxCell id="WP289Cij4RQaTX2rcCHP-36" value="" style="dashed=0;outlineConnect=0;html=1;align=center;labelPosition=center;verticalLabelPosition=bottom;verticalAlign=top;shape=mxgraph.webicons.mongodb;gradientColor=#DFDEDE;fontSize=15;" parent="1" vertex="1">
          <mxGeometry x="120" y="280" width="40" height="40" as="geometry" />
        </mxCell>
        <mxCell id="BKtC9cJUouZ0CHGtqXPR-1" value="DbContext" style="swimlane;fontStyle=0;align=center;verticalAlign=top;childLayout=stackLayout;horizontal=1;startSize=26;horizontalStack=0;resizeParent=1;resizeLast=0;collapsible=1;marginBottom=0;rounded=0;shadow=0;strokeWidth=1;fontSize=15;" vertex="1" parent="1">
          <mxGeometry x="720" y="440" width="320" height="200" as="geometry">
            <mxRectangle x="550" y="140" width="160" height="26" as="alternateBounds" />
          </mxGeometry>
        </mxCell>
        <mxCell id="BKtC9cJUouZ0CHGtqXPR-2" value="&lt;font style=&quot;font-size: 15px&quot;&gt;GetUserChallenges():Challenge[] | null&lt;/font&gt;" style="text;whiteSpace=wrap;html=1;fontSize=15;fontFamily=Helvetica;" vertex="1" parent="BKtC9cJUouZ0CHGtqXPR-1">
          <mxGeometry y="26" width="320" height="28" as="geometry" />
        </mxCell>
        <mxCell id="BKtC9cJUouZ0CHGtqXPR-3" value="&lt;font&gt;AddChallenge():void&lt;/font&gt;" style="text;whiteSpace=wrap;html=1;fontSize=15;fontFamily=Helvetica;" vertex="1" parent="BKtC9cJUouZ0CHGtqXPR-1">
          <mxGeometry y="54" width="320" height="28" as="geometry" />
        </mxCell>
        <mxCell id="BKtC9cJUouZ0CHGtqXPR-4" value="UpdateChallenge():ActualTask" style="text;whiteSpace=wrap;html=1;fontSize=15;fontFamily=Helvetica;verticalAlign=middle;" vertex="1" parent="BKtC9cJUouZ0CHGtqXPR-1">
          <mxGeometry y="82" width="320" height="26" as="geometry" />
        </mxCell>
        <mxCell id="BKtC9cJUouZ0CHGtqXPR-25" style="edgeStyle=orthogonalEdgeStyle;rounded=0;orthogonalLoop=1;jettySize=auto;html=1;entryX=0.5;entryY=1;entryDx=0;entryDy=0;" edge="1" parent="1" source="BKtC9cJUouZ0CHGtqXPR-10" target="BKtC9cJUouZ0CHGtqXPR-17">
          <mxGeometry relative="1" as="geometry" />
        </mxCell>
        <mxCell id="BKtC9cJUouZ0CHGtqXPR-10" value="FrontEnd" style="swimlane;fontStyle=0;align=center;verticalAlign=top;childLayout=stackLayout;horizontal=1;startSize=26;horizontalStack=0;resizeParent=1;resizeLast=0;collapsible=1;marginBottom=0;rounded=0;shadow=0;strokeWidth=1;fontSize=15;" vertex="1" parent="1">
          <mxGeometry x="360" y="1000" width="440" height="200" as="geometry">
            <mxRectangle x="550" y="140" width="160" height="26" as="alternateBounds" />
          </mxGeometry>
        </mxCell>
        <mxCell id="BKtC9cJUouZ0CHGtqXPR-11" value="&lt;font style=&quot;font-size: 15px&quot;&gt;startNewChallenge():Challenge&lt;/font&gt;" style="text;whiteSpace=wrap;html=1;fontSize=15;fontFamily=Helvetica;" vertex="1" parent="BKtC9cJUouZ0CHGtqXPR-10">
          <mxGeometry y="26" width="440" height="28" as="geometry" />
        </mxCell>
        <mxCell id="BKtC9cJUouZ0CHGtqXPR-12" value="&lt;font style=&quot;font-size: 15px&quot;&gt;getActualAchievements():ActualAchievement[]&lt;/font&gt;" style="text;whiteSpace=wrap;html=1;fontSize=15;fontFamily=Helvetica;" vertex="1" parent="BKtC9cJUouZ0CHGtqXPR-10">
          <mxGeometry y="54" width="440" height="28" as="geometry" />
        </mxCell>
        <mxCell id="BKtC9cJUouZ0CHGtqXPR-13" value="getCurrentTask():ActualTask" style="text;whiteSpace=wrap;html=1;fontSize=15;fontFamily=Helvetica;verticalAlign=middle;" vertex="1" parent="BKtC9cJUouZ0CHGtqXPR-10">
          <mxGeometry y="82" width="440" height="26" as="geometry" />
        </mxCell>
        <mxCell id="BKtC9cJUouZ0CHGtqXPR-14" value="&lt;font style=&quot;font-size: 15px&quot;&gt;getSuccessTasks():ActualTask[]&lt;/font&gt;" style="text;whiteSpace=wrap;html=1;fontSize=15;fontFamily=Helvetica;" vertex="1" parent="BKtC9cJUouZ0CHGtqXPR-10">
          <mxGeometry y="108" width="440" height="28" as="geometry" />
        </mxCell>
        <mxCell id="BKtC9cJUouZ0CHGtqXPR-15" value="&lt;font style=&quot;font-size: 15px&quot;&gt;restartCurrentChallenge():Challenge&lt;/font&gt;" style="text;whiteSpace=wrap;html=1;fontSize=15;fontFamily=Helvetica;" vertex="1" parent="BKtC9cJUouZ0CHGtqXPR-10">
          <mxGeometry y="136" width="440" height="28" as="geometry" />
        </mxCell>
        <mxCell id="BKtC9cJUouZ0CHGtqXPR-16" value="&lt;font style=&quot;font-size: 15px&quot;&gt;login(userName:sting):void&lt;/font&gt;" style="text;whiteSpace=wrap;html=1;fontSize=15;fontFamily=Helvetica;" vertex="1" parent="BKtC9cJUouZ0CHGtqXPR-10">
          <mxGeometry y="164" width="440" height="28" as="geometry" />
        </mxCell>
        <mxCell id="BKtC9cJUouZ0CHGtqXPR-24" style="edgeStyle=orthogonalEdgeStyle;rounded=0;orthogonalLoop=1;jettySize=auto;html=1;entryX=0.5;entryY=1;entryDx=0;entryDy=0;" edge="1" parent="1" source="BKtC9cJUouZ0CHGtqXPR-17" target="WP289Cij4RQaTX2rcCHP-2">
          <mxGeometry relative="1" as="geometry" />
        </mxCell>
        <mxCell id="BKtC9cJUouZ0CHGtqXPR-17" value="WebAPI (Express.JS)" style="swimlane;fontStyle=0;align=center;verticalAlign=top;childLayout=stackLayout;horizontal=1;startSize=26;horizontalStack=0;resizeParent=1;resizeLast=0;collapsible=1;marginBottom=0;rounded=0;shadow=0;strokeWidth=1;fontSize=15;" vertex="1" parent="1">
          <mxGeometry x="120" y="720" width="920" height="200" as="geometry">
            <mxRectangle x="550" y="140" width="160" height="26" as="alternateBounds" />
          </mxGeometry>
        </mxCell>
        <mxCell id="BKtC9cJUouZ0CHGtqXPR-18" value="StartNewChallenge() =&amp;gt; POST =&amp;gt; startNewChallenge()" style="text;whiteSpace=wrap;html=1;fontSize=15;fontFamily=Helvetica;" vertex="1" parent="BKtC9cJUouZ0CHGtqXPR-17">
          <mxGeometry y="26" width="920" height="28" as="geometry" />
        </mxCell>
        <mxCell id="BKtC9cJUouZ0CHGtqXPR-19" value="&lt;font style=&quot;font-size: 15px&quot;&gt;GetActualAchievements() =&amp;gt; GET =&amp;gt; getActualAchievements()&lt;/font&gt;" style="text;whiteSpace=wrap;html=1;fontSize=15;fontFamily=Helvetica;" vertex="1" parent="BKtC9cJUouZ0CHGtqXPR-17">
          <mxGeometry y="54" width="920" height="28" as="geometry" />
        </mxCell>
        <mxCell id="BKtC9cJUouZ0CHGtqXPR-20" value="GetCurrentTask() =&amp;gt; GET =&amp;gt; getCurrentTask()" style="text;whiteSpace=wrap;html=1;fontSize=15;fontFamily=Helvetica;verticalAlign=middle;" vertex="1" parent="BKtC9cJUouZ0CHGtqXPR-17">
          <mxGeometry y="82" width="920" height="26" as="geometry" />
        </mxCell>
        <mxCell id="BKtC9cJUouZ0CHGtqXPR-21" value="&lt;font style=&quot;font-size: 15px&quot;&gt;getSuccessTasks():ActualTask[]&lt;/font&gt;" style="text;whiteSpace=wrap;html=1;fontSize=15;fontFamily=Helvetica;" vertex="1" parent="BKtC9cJUouZ0CHGtqXPR-17">
          <mxGeometry y="108" width="920" height="28" as="geometry" />
        </mxCell>
        <mxCell id="BKtC9cJUouZ0CHGtqXPR-22" value="&lt;font style=&quot;font-size: 15px&quot;&gt;restartCurrentChallenge():Challenge&lt;/font&gt;" style="text;whiteSpace=wrap;html=1;fontSize=15;fontFamily=Helvetica;" vertex="1" parent="BKtC9cJUouZ0CHGtqXPR-17">
          <mxGeometry y="136" width="920" height="28" as="geometry" />
        </mxCell>
        <mxCell id="BKtC9cJUouZ0CHGtqXPR-23" value="&lt;font style=&quot;font-size: 15px&quot;&gt;login(userName:sting):void&lt;/font&gt;" style="text;whiteSpace=wrap;html=1;fontSize=15;fontFamily=Helvetica;" vertex="1" parent="BKtC9cJUouZ0CHGtqXPR-17">
          <mxGeometry y="164" width="920" height="28" as="geometry" />
        </mxCell>
        <mxCell id="BKtC9cJUouZ0CHGtqXPR-28" value="BACKEND" style="text;html=1;strokeColor=none;fillColor=none;align=center;verticalAlign=middle;whiteSpace=wrap;rounded=0;fontFamily=Helvetica;fontSize=15;" vertex="1" parent="1">
          <mxGeometry x="40" y="660" width="90" height="20" as="geometry" />
        </mxCell>
      </root>
    </mxGraphModel>
  </diagram>
</mxfile>
